neovim,,,,,,,,,,,,,,,,,,,,,,,,,,,,,,,,,,,,,,,
sc-im,a,,,,,,,,,,,,,,,,,,,,,,,,,,,,,,,,,,,,,,
mpd,,,,,,,,,,,,,,,,,,,,,,,,,,,,,,,,,,,,,,,
mpc,,,,,,,,,,,,,,,,,,,,,,,,,,,,,,,,,,,,,,,
ncmpcpp,,,,,,,,,,,,,,,,,,,,,,,,,,,,,,,,,,,,,,,
transmission-daemon,,,,,,,,,,,,,,,,,,,,,,,,,,,,,,,,,,,,,,,
tremc,a,,,,,,,,,,,,,,,,,,,,,,,,,,,,,,,,,,,,,,
bat,a,,,,,,,,,,,,,,,,,,,,,,,,,,,,,,,,,,,,,,
ranger,,,,,,,,,,,,,,,,,,,,,,,,,,,,,,,,,,,,,,,
rtv,a,,,,,,,,,,,,,,,,,,,,,,,,,,,,,,,,,,,,,,
sxhkd,,,,,,,,,,,,,,,,,,,,,,,,,,,,,,,,,,,,,,,
mpv,,,,,,,,,,,,,,,,,,,,,,,,,,,,,,,,,,,,,,,
imagemagick,,,,,,,,,,,,,,,,,,,,,,,,,,,,,,,,,,,,,,,
yay,a,,,,,,,,,,,,,,,,,,,,,,,,,,,,,,,,,,,,,,
firefox,,,,,,,,,,,,,,,,,,,,,,,,,,,,,,,,,,,,,,,
